{
  "port": 3001,
  "mongoose": {
    "uri": "mongodb://localhost:reactbackend",
    "options": {
      "server": {
        "socketOptions": {
          "keepAlive": 1
        }
      }
    }
  },
  "session": {
    "secret": "KillerIsJim",
    "key": "sid",
    "cookie": {
      "path": "/",
      "httpOnly": true,
      "maxAge": null
    },
    "proxy": true,
    "resave": true,
    "saveUninitialized": true
  }
}